# setting LC_ALL to "C"
# --> Including file '/home/marcocle/stacks/master/Gaudi/GaudiExamples/options/NTuples.opts'
# ApplicationMgr.TopAlg   = { "NTupleAlgorithm" };
# MessageSvc.OutputLevel  = 3;
# ApplicationMgr.EvtMax   = 10000;
# ApplicationMgr.EvtSel  = "NONE";
# ApplicationMgr.HistogramPersistency = "ROOT";
# HistogramPersistencySvc.OutputFile = "histo.root";
# NTupleSvc.Output = { "MyTuples DATAFILE='ntuple.root' OPT='NEW' TYP='ROOT'" };
# <-- End of file '/home/marcocle/stacks/master/Gaudi/GaudiExamples/options/NTuples.opts'
ApplicationMgr    SUCCESS
====================================================================================================================================
                                                   Welcome to ApplicationMgr (GaudiCoreSvc v36r12)
                                          running on lbbuildinter01.cern.ch on Mon Apr 17 15:54:20 2023
====================================================================================================================================
ApplicationMgr       INFO Application Manager Configured successfully
Gaudi::MetaDataSvc  DEBUG Property update for OutputLevel : new value = 2
Gaudi::MetaDataSvc  DEBUG Service base class initialized successfully
NTupleSvc            INFO Added stream file:ntuple_with_metadata.root as MyTuples
RFileCnv             INFO opening Root file "ntuple_with_metadata.root" for writing
NTupleAlgorithm      INFO Finished booking NTuples
EventLoopMgr      WARNING Unable to locate service "EventSelector"
EventLoopMgr      WARNING No events will be processed from external input.
RootHistSvc          INFO Writing ROOT histograms to: histo.root
HistogramPersis...   INFO Added successfully Conversion service:RootHistSvc
ApplicationMgr       INFO Application Manager Initialized successfully
JobOptionsSvc        INFO Properties are dumped into "gaudiexamples.metadatasvc.joboptsdump"
Gaudi::MetaDataSvc  DEBUG started
Gaudi::MetaDataSvc  DEBUG Metadata collected:
AlgExecStateSvc.AuditFinalize:False
AlgExecStateSvc.AuditInitialize:False
AlgExecStateSvc.AuditReinitialize:False
AlgExecStateSvc.AuditRestart:False
AlgExecStateSvc.AuditServices:False
AlgExecStateSvc.AuditStart:False
AlgExecStateSvc.AuditStop:False
AlgExecStateSvc.AutoRetrieveTools:True
AlgExecStateSvc.CheckToolDeps:True
AlgExecStateSvc.OutputLevel:3
AppMgrRunable.AuditFinalize:False
AppMgrRunable.AuditInitialize:False
AppMgrRunable.AuditReinitialize:False
AppMgrRunable.AuditRestart:False
AppMgrRunable.AuditServices:False
AppMgrRunable.AuditStart:False
AppMgrRunable.AuditStop:False
AppMgrRunable.AutoRetrieveTools:True
AppMgrRunable.CheckToolDeps:True
AppMgrRunable.EvtMax:10
AppMgrRunable.OutputLevel:3
ApplicationMgr.ActivateHistory:False
ApplicationMgr.AlgTypeAliases:{  }
ApplicationMgr.AppName:'ApplicationMgr'
ApplicationMgr.AppVersion:''
ApplicationMgr.AuditAlgorithms:False
ApplicationMgr.AuditServices:False
ApplicationMgr.AuditTools:False
ApplicationMgr.CreateSvc:[  ]
ApplicationMgr.Dlls:[  ]
ApplicationMgr.Environment:{  }
ApplicationMgr.EventLoop:'EventLoopMgr'
ApplicationMgr.EvtMax:10
ApplicationMgr.EvtSel:'NONE'
ApplicationMgr.Exit:0
ApplicationMgr.ExtSvc:[ 'Gaudi::MetaDataSvc' , 'Gaudi::Monitoring::MessageSvcSink' ]
ApplicationMgr.ExtSvcCreates:True
ApplicationMgr.Go:0
ApplicationMgr.HistogramPersistency:'ROOT'
ApplicationMgr.InitializationLoopCheck:True
ApplicationMgr.JobOptionsPath:''
ApplicationMgr.JobOptionsPostAction:''
ApplicationMgr.JobOptionsPreAction:''
ApplicationMgr.JobOptionsSvcType:'JobOptionsSvc'
ApplicationMgr.JobOptionsType:'NONE'
ApplicationMgr.MessageSvcType:'MessageSvc'
ApplicationMgr.OutStream:[  ]
ApplicationMgr.OutputLevel:3
ApplicationMgr.PluginDebugLevel:0
ApplicationMgr.PrintAlgsSequence:False
ApplicationMgr.PropertiesPrint:False
ApplicationMgr.ReturnCode:0
ApplicationMgr.Runable:'AppMgrRunable'
ApplicationMgr.StalledEventMonitoring:False
ApplicationMgr.StopOnSignal:False
ApplicationMgr.SvcMapping:[ 'EvtDataSvc/EventDataSvc' , 'DetDataSvc/DetectorDataSvc' , 'HistogramSvc/HistogramDataSvc' , 'HbookCnv::PersSvc/HbookHistSvc' , 'RootHistCnv::PersSvc/RootHistSvc' , 'EvtPersistencySvc/EventPersistencySvc' , 'DetPersistencySvc/DetectorPersistencySvc' , 'HistogramPersistencySvc/HistogramPersistencySvc' ]
ApplicationMgr.SvcOptMapping:[  ]
ApplicationMgr.TopAlg:[ 'NTupleAlgorithm' ]
ApplicationMgr.UseMessageSvcForROOTMessages:True
EventDataSvc.AuditFinalize:False
EventDataSvc.AuditInitialize:False
EventDataSvc.AuditReinitialize:False
EventDataSvc.AuditRestart:False
EventDataSvc.AuditServices:False
EventDataSvc.AuditStart:False
EventDataSvc.AuditStop:False
EventDataSvc.AutoRetrieveTools:True
EventDataSvc.CheckToolDeps:True
EventDataSvc.DataAccessName:'DataAccess'
EventDataSvc.DataFaultName:'DataFault'
EventDataSvc.EnableAccessHandler:False
EventDataSvc.EnableFaultHandler:False
EventDataSvc.ForceLeaves:False
EventDataSvc.InhibitPathes:[  ]
EventDataSvc.OutputLevel:3
EventDataSvc.RootCLID:110
EventDataSvc.RootName:'/Event'
EventLoopMgr.AuditFinalize:False
EventLoopMgr.AuditInitialize:False
EventLoopMgr.AuditReinitialize:False
EventLoopMgr.AuditRestart:False
EventLoopMgr.AuditServices:False
EventLoopMgr.AuditStart:False
EventLoopMgr.AuditStop:False
EventLoopMgr.AutoRetrieveTools:True
EventLoopMgr.CheckToolDeps:True
EventLoopMgr.EvtSel:'NONE'
EventLoopMgr.HistogramPersistency:''
EventLoopMgr.OutStream:[  ]
EventLoopMgr.OutputLevel:3
EventLoopMgr.PrintControlFlowExpression:False
EventLoopMgr.TopAlg:[ 'NTupleAlgorithm' ]
EventLoopMgr.Warnings:True
EventPersistencySvc.AuditFinalize:False
EventPersistencySvc.AuditInitialize:False
EventPersistencySvc.AuditReinitialize:False
EventPersistencySvc.AuditRestart:False
EventPersistencySvc.AuditServices:False
EventPersistencySvc.AuditStart:False
EventPersistencySvc.AuditStop:False
EventPersistencySvc.AutoRetrieveTools:True
EventPersistencySvc.CheckToolDeps:True
EventPersistencySvc.CnvServices:[  ]
EventPersistencySvc.OutputLevel:3
Gaudi::MetaDataSvc.AuditFinalize:False
Gaudi::MetaDataSvc.AuditInitialize:False
Gaudi::MetaDataSvc.AuditReinitialize:False
Gaudi::MetaDataSvc.AuditRestart:False
Gaudi::MetaDataSvc.AuditServices:False
Gaudi::MetaDataSvc.AuditStart:False
Gaudi::MetaDataSvc.AuditStop:False
Gaudi::MetaDataSvc.AutoRetrieveTools:True
Gaudi::MetaDataSvc.CheckToolDeps:True
Gaudi::MetaDataSvc.Enabled:True
Gaudi::MetaDataSvc.OutputLevel:2
Gaudi::Monitoring::MessageSvcSink.AuditFinalize:False
Gaudi::Monitoring::MessageSvcSink.AuditInitialize:False
Gaudi::Monitoring::MessageSvcSink.AuditReinitialize:False
Gaudi::Monitoring::MessageSvcSink.AuditRestart:False
Gaudi::Monitoring::MessageSvcSink.AuditServices:False
Gaudi::Monitoring::MessageSvcSink.AuditStart:False
Gaudi::Monitoring::MessageSvcSink.AuditStop:False
Gaudi::Monitoring::MessageSvcSink.AutoFlushPeriod:0.00000
Gaudi::Monitoring::MessageSvcSink.AutoRetrieveTools:True
Gaudi::Monitoring::MessageSvcSink.CheckToolDeps:True
Gaudi::Monitoring::MessageSvcSink.ComponentsToSave:[  ]
Gaudi::Monitoring::MessageSvcSink.NamesToSave:[  ]
Gaudi::Monitoring::MessageSvcSink.OutputLevel:3
Gaudi::Monitoring::MessageSvcSink.TypesToSave:[ 'counter:.*' , 'statentity' , 'histogram:' ]
HistogramDataSvc.AuditFinalize:False
HistogramDataSvc.AuditInitialize:False
HistogramDataSvc.AuditReinitialize:False
HistogramDataSvc.AuditRestart:False
HistogramDataSvc.AuditServices:False
HistogramDataSvc.AuditStart:False
HistogramDataSvc.AuditStop:False
HistogramDataSvc.AutoRetrieveTools:True
HistogramDataSvc.CheckToolDeps:True
HistogramDataSvc.DataAccessName:'DataAccess'
HistogramDataSvc.DataFaultName:'DataFault'
HistogramDataSvc.EnableAccessHandler:False
HistogramDataSvc.EnableFaultHandler:False
HistogramDataSvc.ForceLeaves:False
HistogramDataSvc.InhibitPathes:[  ]
HistogramDataSvc.Input:[  ]
HistogramDataSvc.OutputLevel:3
HistogramDataSvc.Predefined1DHistos:{  }
HistogramDataSvc.RootCLID:1
HistogramDataSvc.RootName:'/stat'
HistogramPersistencySvc.AuditFinalize:False
HistogramPersistencySvc.AuditInitialize:False
HistogramPersistencySvc.AuditReinitialize:False
HistogramPersistencySvc.AuditRestart:False
HistogramPersistencySvc.AuditServices:False
HistogramPersistencySvc.AuditStart:False
HistogramPersistencySvc.AuditStop:False
HistogramPersistencySvc.AutoRetrieveTools:True
HistogramPersistencySvc.CheckToolDeps:True
HistogramPersistencySvc.CnvServices:[ 'RootHistSvc' ]
HistogramPersistencySvc.ConvertHistos:[  ]
HistogramPersistencySvc.ExcludeHistos:[  ]
HistogramPersistencySvc.HistogramPersistency:'ROOT'
HistogramPersistencySvc.OutputFile:'histo.root'
HistogramPersistencySvc.OutputLevel:3
HistogramPersistencySvc.Warnings:True
IncidentSvc.AuditFinalize:False
IncidentSvc.AuditInitialize:False
IncidentSvc.AuditReinitialize:False
IncidentSvc.AuditRestart:False
IncidentSvc.AuditServices:False
IncidentSvc.AuditStart:False
IncidentSvc.AuditStop:False
IncidentSvc.AutoRetrieveTools:True
IncidentSvc.CheckToolDeps:True
IncidentSvc.OutputLevel:3
JobOptionsSvc.AuditFinalize:False
JobOptionsSvc.AuditInitialize:False
JobOptionsSvc.AuditReinitialize:False
JobOptionsSvc.AuditRestart:False
JobOptionsSvc.AuditServices:False
JobOptionsSvc.AuditStart:False
JobOptionsSvc.AuditStop:False
JobOptionsSvc.AutoRetrieveTools:True
JobOptionsSvc.CheckToolDeps:True
JobOptionsSvc.DUMPFILE:'gaudiexamples.metadatasvc.joboptsdump'
JobOptionsSvc.GlobalDefaults:[  ]
JobOptionsSvc.OutputLevel:3
JobOptionsSvc.PATH:'../options/job.opts'
JobOptionsSvc.PYTHONACTION:''
JobOptionsSvc.PYTHONPARAMS:''
JobOptionsSvc.ReportUnused:False
JobOptionsSvc.SEARCHPATH:''
JobOptionsSvc.TYPE:'NONE'
MessageSvc.AuditFinalize:False
MessageSvc.AuditInitialize:False
MessageSvc.AuditReinitialize:False
MessageSvc.AuditRestart:False
MessageSvc.AuditServices:False
MessageSvc.AuditStart:False
MessageSvc.AuditStop:False
MessageSvc.AutoRetrieveTools:True
MessageSvc.CheckToolDeps:True
MessageSvc.Format:'% F%18W%S%7W%R%T %0W%M'
MessageSvc.OutputLevel:3
MessageSvc.alwaysColorCode:[  ]
MessageSvc.alwaysLimit:0
MessageSvc.countInactive:False
MessageSvc.debugColorCode:[  ]
MessageSvc.debugLimit:500
MessageSvc.defaultLimit:500
MessageSvc.enableSuppression:False
MessageSvc.errorColorCode:[ 'white' , 'red' ]
MessageSvc.errorLimit:500
MessageSvc.fatalColorCode:[ 'blue' , 'red' ]
MessageSvc.fatalLimit:500
MessageSvc.infoColorCode:[  ]
MessageSvc.infoLimit:500
MessageSvc.loggedStreams:{  }
MessageSvc.setAlways:[  ]
MessageSvc.setDebug:[  ]
MessageSvc.setError:[  ]
MessageSvc.setFatal:[  ]
MessageSvc.setInfo:[  ]
MessageSvc.setVerbose:[  ]
MessageSvc.setWarning:[  ]
MessageSvc.showStats:False
MessageSvc.statLevel:0
MessageSvc.timeFormat:'%Y-%m-%d %H:%M:%S,%f'
MessageSvc.tracedInactiveSources:[  ]
MessageSvc.useColors:False
MessageSvc.verboseColorCode:[  ]
MessageSvc.verboseLimit:500
MessageSvc.warningColorCode:[ 'yellow' ]
MessageSvc.warningLimit:500
NTupleAlgorithm.AuditAlgorithms:False
NTupleAlgorithm.AuditExecute:False
NTupleAlgorithm.AuditFinalize:False
NTupleAlgorithm.AuditInitialize:False
NTupleAlgorithm.AuditReinitialize:False
NTupleAlgorithm.AuditRestart:False
NTupleAlgorithm.AuditStart:False
NTupleAlgorithm.AuditStop:False
NTupleAlgorithm.Blocking:False
NTupleAlgorithm.Cardinality:1
NTupleAlgorithm.Enable:True
NTupleAlgorithm.ErrorMax:1
NTupleAlgorithm.ExtraInputs:set()
NTupleAlgorithm.ExtraOutputs:set()
NTupleAlgorithm.FilterCircularDependencies:True
NTupleAlgorithm.MonitorService:'MonitorSvc'
NTupleAlgorithm.NeededResources:[  ]
NTupleAlgorithm.OutputLevel:3
NTupleAlgorithm.RegisterForContextService:False
NTupleAlgorithm.Timeline:False
NTupleSvc.AuditFinalize:False
NTupleSvc.AuditInitialize:False
NTupleSvc.AuditReinitialize:False
NTupleSvc.AuditRestart:False
NTupleSvc.AuditServices:False
NTupleSvc.AuditStart:False
NTupleSvc.AuditStop:False
NTupleSvc.AutoRetrieveTools:True
NTupleSvc.CheckToolDeps:True
NTupleSvc.DataAccessName:'DataAccess'
NTupleSvc.DataFaultName:'DataFault'
NTupleSvc.EnableAccessHandler:False
NTupleSvc.EnableFaultHandler:False
NTupleSvc.ForceLeaves:False
NTupleSvc.InhibitPathes:[  ]
NTupleSvc.Input:[  ]
NTupleSvc.Output:[ 'MyTuples DATAFILE=\'ntuple_with_metadata.root\' OPT=\'NEW\' TYP=\'ROOT\'' ]
NTupleSvc.OutputLevel:3
NTupleSvc.RootCLID:1
NTupleSvc.RootName:'/NTUPLES'
NTupleSvcConversions.AuditFinalize:False
NTupleSvcConversions.AuditInitialize:False
NTupleSvcConversions.AuditReinitialize:False
NTupleSvcConversions.AuditRestart:False
NTupleSvcConversions.AuditServices:False
NTupleSvcConversions.AuditStart:False
NTupleSvcConversions.AuditStop:False
NTupleSvcConversions.AutoRetrieveTools:True
NTupleSvcConversions.CheckToolDeps:True
NTupleSvcConversions.OutputLevel:3
RootHistSvc.AuditFinalize:False
RootHistSvc.AuditInitialize:False
RootHistSvc.AuditReinitialize:False
RootHistSvc.AuditRestart:False
RootHistSvc.AuditServices:False
RootHistSvc.AuditStart:False
RootHistSvc.AuditStop:False
RootHistSvc.AutoRetrieveTools:True
RootHistSvc.CheckToolDeps:True
RootHistSvc.ForceAlphaIds:False
RootHistSvc.OutputEnabled:True
RootHistSvc.OutputFile:'histo.root'
RootHistSvc.OutputLevel:3
TimelineSvc.AuditFinalize:False
TimelineSvc.AuditInitialize:False
TimelineSvc.AuditReinitialize:False
TimelineSvc.AuditRestart:False
TimelineSvc.AuditServices:False
TimelineSvc.AuditStart:False
TimelineSvc.AuditStop:False
TimelineSvc.AutoRetrieveTools:True
TimelineSvc.CheckToolDeps:True
TimelineSvc.DumpTimeline:False
TimelineSvc.OutputLevel:3
TimelineSvc.Partial:False
TimelineSvc.RecordTimeline:False
TimelineSvc.TimelineFile:'timeline.csv'

ApplicationMgr       INFO Application Manager Started successfully
RRWNTupleCnv         INFO ID 1: added branch: Ntrack / Ntrack/I
RRWNTupleCnv         INFO ID 1: added branch: Energy / Energy/F
RRWNTupleCnv         INFO Booked TTree with ID:1 "Row-wise N-Tuple example"
RCWNTupleCnv         INFO Booked TTree with ID: 2 "Col-Wise NTuple examples" in directory ntuple_with_metadata.root:/simple
ApplicationMgr       INFO Application Manager Stopped successfully
NTupleAlgorithm      INFO Finalizing...
EventLoopMgr         INFO Histograms converted successfully according to request.
RFileCnv             INFO dumping contents of /NTUPLES/MyTuples
TFile: name=ntuple_with_metadata.root, title=Gaudi Trees, option=CREATE
******************************************************************************
*Tree    :2         : Col-Wise NTuple examples                               *
*Entries :       10 : Total =            6032 bytes  File  Size =       1094 *
*        :          : Tree compression factor =   8.32                       *
******************************************************************************
*Br    0 :N         : N/I                                                    *
*Entries :       10 : Total  Size=        582 bytes  File Size  =        105 *
*Baskets :        1 : Basket Size=      32000 bytes  Compression=   1.00     *
*............................................................................*
*Br    1 :FNumbers  : FNumbers[N]/F                                          *
*Entries :       10 : Total  Size=       2600 bytes  File Size  =        198 *
*Baskets :        1 : Basket Size=      32000 bytes  Compression=  10.20     *
*............................................................................*
*Br    2 :INumbers  : INumbers[N]/I                                          *
*Entries :       10 : Total  Size=       2593 bytes  File Size  =        195 *
*Baskets :        1 : Basket Size=      32000 bytes  Compression=  10.36     *
*............................................................................*
******************************************************************************
*Tree    :1         : Row-wise N-Tuple example                               *
*Entries :       10 : Total =            1597 bytes  File  Size =        666 *
*        :          : Tree compression factor =   1.00                       *
******************************************************************************
*Br    0 :Ntrack    : Ntrack/I                                               *
*Entries :       10 : Total  Size=        607 bytes  File Size  =        110 *
*Baskets :        1 : Basket Size=      32000 bytes  Compression=   1.00     *
*............................................................................*
*Br    1 :Energy    : Energy/F                                               *
*Entries :       10 : Total  Size=        607 bytes  File Size  =        110 *
*Baskets :        1 : Basket Size=      32000 bytes  Compression=   1.00     *
*............................................................................*
NTupleSvc            INFO NTuples saved successfully
ApplicationMgr       INFO Application Manager Finalized successfully
ApplicationMgr       INFO Application Manager Terminated successfully
